{
  "project_info": {
    "project_number": "864275820162",
    "firebase_url": "https://scrm-a874e-default-rtdb.firebaseio.com",
    "project_id": "scrm-a874e",
    "storage_bucket": "scrm-a874e.appspot.com"
  },
  "client": [
    {
      "client_info": {
        "mobilesdk_app_id": "1:864275820162:android:372b0da8a4647307fbce9b",
        "android_client_info": {
          "package_name": "com.sctv.scrm"
        }
      },
      "oauth_client": [
        {
          "client_id": "864275820162-5vv5p3126tmsobpjk0cic09u9k7viq0s.apps.googleusercontent.com",
          "client_type": 1,
          "android_info": {
            "package_name": "com.sctv.scrm",
            "certificate_hash": "6325e28f20f3dacef2544180bda6c4cb139b1355"
          }
        },
        {
          "client_id": "864275820162-rl0bj189d73sfote49qsmg7n28utrduj.apps.googleusercontent.com",
          "client_type": 3
        }
      ],
      "api_key": [
        {
          "current_key": "AIzaSyBIeTa8T8D4wxByEZA-F17obYJdnrcV77o"
        }
      ],
      "services": {
        "appinvite_service": {
          "other_platform_oauth_client": [
            {
              "client_id": "864275820162-rl0bj189d73sfote49qsmg7n28utrduj.apps.googleusercontent.com",
              "client_type": 3
            }
          ]
        }
      }
    }
  ],
  "configuration_version": "1"
}